{
  "component_configuration":{
  },
  "component_data":{
    "collider_color": "0x000000"
  },
  "physics":{
    "bodyType": "circle",
    "options": {
      "frictionless":true,
      "render": true,
      "damping": 0.2,
      "density": 0.2
    }
  },
  "scripts":[
  ]
}
