{
  "fps": 60,
  "container":"#game-container",
  "logLevel": 0,
  "debugMode":true,
  "physicsStepsPerUpdate":4,
  "physicsScale":16,
  "renderer":{
    "options": {
      "antialias": true,
      "transparent": false
    },
    "size":{
      "x":960,
      "y":640
    }
  },
  "resourceLists":[
    "res/filelist.json"
  ],
  "staticResources":[
    "res/sprite/sprite.json",
    "res/sounds/sounds.json"
  ],
  "audioResources":[
    "res/sounds/sounds.json"
  ]
}
